<svg width="72" height="76" viewBox="0 0 62 66" fill="none" xmlns="http://www.w3.org/2000/svg">
<path d="M62 14.3687L62 66L18.9221 66C18.9221 66 -12.4914 25.2771 5.63213 6.99276C24.7236 -12.2681 62 14.3687 62 14.3687Z" fill="white"/>
</svg>
