<svg width="8" height="8" viewBox="0 0 8 8" fill="none" xmlns="http://www.w3.org/2000/svg">
<path fill-rule="evenodd" clip-rule="evenodd" d="M4.94283 4.00017L7.80483 1.13817C8.0655 0.8775 8.0655 0.456167 7.80483 0.1955C7.54417 -0.0651667 7.12283 -0.0651667 6.86217 0.1955L4.00017 3.0575L1.13817 0.1955C0.8775 -0.0651667 0.456167 -0.0651667 0.1955 0.1955C-0.0651667 0.456167 -0.0651667 0.8775 0.1955 1.13817L3.0575 4.00017L0.1955 6.86217C-0.0651667 7.12283 -0.0651667 7.54417 0.1955 7.80483C0.3255 7.93483 0.496167 8.00017 0.666833 8.00017C0.8375 8.00017 1.00817 7.93483 1.13817 7.80483L4.00017 4.94283L6.86217 7.80483C6.99217 7.93483 7.16283 8.00017 7.3335 8.00017C7.50417 8.00017 7.67483 7.93483 7.80483 7.80483C8.0655 7.54417 8.0655 7.12283 7.80483 6.86217L4.94283 4.00017Z" fill="#440000"/>
</svg>
