<svg width="22" height="20" viewBox="0 0 22 20" fill="none" xmlns="http://www.w3.org/2000/svg">
<path d="M11 0.809018L13.2319 7.67807L13.288 7.85081H13.4697H20.6922L14.849 12.0961L14.7021 12.2029L14.7582 12.3756L16.9901 19.2447L11.1469 14.9994L11 14.8926L10.8531 14.9994L5.00989 19.2447L7.24178 12.3756L7.29791 12.2029L7.15096 12.0961L1.3078 7.85081H8.53035H8.71198L8.76811 7.67807L11 0.809018Z" stroke="#004770" stroke-width="0.5"/>
</svg>
