<svg width="34" height="34" viewBox="0 0 34 34" fill="none" xmlns="http://www.w3.org/2000/svg">
<path d="M17 34C26.3888 34 34 26.3888 34 17C34 7.61115 26.3888 0 17 0C7.61116 0 0 7.61115 0 17C0 26.3888 7.61116 34 17 34Z" fill="#FFE7C3"/>
<path d="M13.2412 17.2014C13.3209 18.161 13.4063 19.1265 13.4861 20.0861C12.9507 20.2223 12.4154 20.3645 11.88 20.5007C12.1363 21.0338 12.3926 21.5728 12.6489 22.1059C11.5782 22.8701 10.5018 23.6401 9.42542 24.4279C8.58824 25.0321 7.75675 25.6422 6.93665 26.2464C7.42073 26.8446 8.14971 27.6383 9.16914 28.3965C9.34569 28.5268 9.98355 28.9889 10.9403 29.4805C11.4757 29.753 13.0418 30.5052 14.8757 30.8132C19.8134 31.6366 23.8911 28.7519 24.2499 28.4913C25.5655 27.5317 26.4596 26.4833 27.0063 25.7547C25.9812 25.3993 24.9561 25.0439 23.9253 24.6826C22.6097 24.2206 21.2998 23.7586 19.9956 23.2965C20.1779 22.9885 20.3658 22.6746 20.548 22.3666C20.1551 22.2303 19.7678 22.0882 19.3748 21.9519C19.6311 21.407 19.8874 20.862 20.1437 20.3171C17.8485 19.2805 15.5477 18.2439 13.2412 17.2014Z" fill="#323835"/>
<path d="M13.5201 16.4314C13.7992 18.0011 14.0726 19.5767 14.3516 21.1464C15.4907 22.3548 16.6354 23.5631 17.7744 24.7715C18.3098 23.1781 18.8451 21.5847 19.3804 19.9914C18.2072 19.7663 17.034 19.5412 15.8665 19.3161C15.6615 18.0544 15.4565 16.7928 15.2515 15.5311C14.6706 15.8332 14.0954 16.1353 13.5201 16.4314Z" fill="white"/>
<path d="M21.8067 7.89581C22.2111 8.90278 22.6154 9.90975 23.0255 10.9167C23.6918 11.6867 24.3638 12.4568 25.0302 13.2268C24.5461 13.8369 24.062 14.447 23.5779 15.0571C23.7146 15.3059 23.9253 15.7561 23.9766 16.3721C24.0335 17.0296 23.8911 17.5449 23.7943 17.8174C24.1531 18.5223 24.5119 19.2272 24.8764 19.932C24.0563 20.4651 23.2305 21.0042 22.4104 21.5373C20.1152 21.0042 17.8258 20.4651 15.5307 19.932C15.5022 19.6655 15.2972 17.7996 15.0124 17.1185C14.9953 17.0829 14.9441 16.9644 14.8529 16.8282C14.6593 16.5617 14.2663 16.1885 14.0214 16.301C13.7936 16.4017 13.7766 16.8815 13.7652 17.1185C13.7481 17.539 13.862 17.6575 13.7652 17.8174C13.6114 18.0721 13.133 18.1017 12.7913 17.9596C12.3243 17.77 12.1762 17.2843 12.142 17.1895C11.9997 16.7275 12.142 16.3366 12.1876 16.23C11.5953 15.6376 10.9973 15.0453 10.405 14.447C10.6442 13.1676 10.8777 11.8941 11.1169 10.6146C14.6764 9.70243 18.2415 8.79616 21.8067 7.89581Z" fill="#2F2F2F"/>
<path d="M21.67 9.00952C21.9262 9.80917 22.1768 10.6147 22.4331 11.4144C23.0197 12.0186 23.6063 12.6168 24.1929 13.221C23.5551 13.606 22.9115 13.991 22.2737 14.3761C22.342 14.767 22.4103 15.1639 22.4844 15.5548C21.6927 15.8984 20.8954 16.2419 20.1038 16.5914C19.4147 16.6743 18.7256 16.7513 18.0365 16.8342C17.615 16.2893 17.1936 15.7444 16.7721 15.1935C16.419 14.1214 16.0603 13.0433 15.7072 11.9712C16.009 11.4203 16.3108 10.8635 16.607 10.3127C18.2927 9.87433 19.9842 9.44193 21.67 9.00952Z" fill="white"/>
<path d="M20.0981 17.3318C21.1176 17.545 21.7839 17.3969 22.2167 17.2133C22.4388 17.1185 22.7806 16.929 22.8945 17.0474C22.9913 17.1541 22.8774 17.468 22.7464 17.6279C22.2338 18.2499 20.4911 17.5095 20.0981 17.3318Z" fill="white"/>
<path d="M14.6819 13.4105C14.7901 13.2091 14.6592 12.8537 14.4484 12.6878C13.9359 12.2732 12.6602 12.7411 12.4381 13.5289C12.3469 13.8606 12.4551 14.1805 12.552 14.4648C12.626 14.684 12.7912 15.1342 13.224 15.4244C13.4005 15.5429 13.6226 15.691 13.896 15.6673C14.1067 15.6436 14.2036 15.5369 14.3573 15.5962C14.5054 15.6554 14.5054 15.7916 14.6592 15.9575C14.8528 16.1648 15.223 16.3366 15.3995 16.2004C15.5533 16.0819 15.5647 15.7087 15.4223 15.454C15.166 14.9861 14.5168 15.0868 14.4371 14.7195C14.3915 14.5122 14.568 14.3286 14.4484 14.1568C14.3801 14.0561 14.2719 14.0324 14.2377 14.0265C14.027 13.9732 13.7821 14.1153 13.7081 14.3049C13.5942 14.5774 13.8675 14.8617 13.7878 14.9328C13.7195 14.992 13.4062 14.8321 13.3151 14.5596C13.2297 14.3167 13.3265 14.0324 13.486 13.8488C13.8732 13.4223 14.5111 13.7303 14.6819 13.4105Z" fill="white"/>
<path d="M17.4613 12.0896C17.6606 11.7757 18.0479 11.2544 18.7085 10.9109C19.3065 10.597 19.876 10.6206 21.0208 10.668C21.3966 10.6858 21.6472 10.7154 21.7611 10.9109C21.9377 11.213 21.6415 11.6928 21.6017 11.752C21.1916 11.6217 20.6221 11.4855 19.9387 11.4855C18.8111 11.4855 17.9454 11.8409 17.4613 12.0896Z" fill="#2F2F2F"/>
<path d="M19.2722 12.5931C19.3861 12.5339 19.5513 12.4569 19.7563 12.3858C20.2632 12.2081 20.7188 12.0422 21.0434 12.2614C21.2883 12.4273 21.425 12.7708 21.3396 12.8834C21.2484 12.9959 20.9409 12.7708 20.4112 12.6464C19.967 12.5398 19.5684 12.5576 19.2722 12.5931Z" fill="#2F2F2F"/>
<path d="M12.9621 9.19309L12.8595 9.21678C12.609 9.28194 12.0565 9.4241 11.3446 9.63734C11.0656 9.72027 10.8264 9.79727 10.6498 9.85058V9.84466C10.6612 9.83873 10.6783 9.83281 10.6897 9.82689C10.6327 9.66103 10.6157 9.51887 10.6043 9.4241C10.5872 9.26417 10.61 9.21086 10.6157 9.19309C10.6669 9.05685 10.8093 9.01539 10.8776 8.99169C11.3275 8.85546 11.9426 8.63037 12.4723 8.65999C12.5349 8.66591 12.6431 8.67183 12.7399 8.75476C12.757 8.76661 12.814 8.81992 12.8823 8.968C12.9051 9.02131 12.9336 9.09832 12.9621 9.19309Z" fill="#323835"/>
<path d="M15.8665 8.48234C14.9952 8.7015 14.3118 8.85551 13.2126 9.12798C13.1898 9.03913 13.1784 8.96213 13.167 8.9029C13.1442 8.71927 13.1613 8.66004 13.167 8.64227C13.2183 8.48234 13.3834 8.42311 13.4632 8.39941C13.9757 8.21579 14.6819 7.92555 15.2856 7.93147C15.3597 7.93147 15.485 7.93739 15.5989 8.02624C15.6216 8.04401 15.69 8.09732 15.7697 8.25725C15.8039 8.31056 15.8381 8.38757 15.8665 8.48234Z" fill="#323835"/>
<path d="M18.6402 7.72411C17.4784 8.02621 17.4214 8.08544 16.0888 8.42899C16.066 8.33422 16.0489 8.25129 16.0432 8.19206C16.0147 7.99659 16.0318 7.93736 16.0375 7.91366C16.0888 7.74781 16.2482 7.6945 16.3223 7.66488C16.8177 7.48718 17.5012 7.19694 18.0935 7.21471C18.1675 7.21471 18.2871 7.22656 18.401 7.32133C18.4238 7.3391 18.4864 7.39833 18.5719 7.57011C18.5946 7.61157 18.6174 7.65896 18.6402 7.72411Z" fill="#323835"/>
<path d="M21.3169 7.11408C20.6391 7.25032 19.8133 7.42802 18.8793 7.66495C18.8566 7.59387 18.8395 7.52872 18.8281 7.47541C18.7882 7.28586 18.7996 7.2207 18.8053 7.20293C18.8395 7.03708 18.9875 6.97192 19.0502 6.94231C19.5058 6.74091 20.1266 6.4329 20.6847 6.42105C20.753 6.42105 20.8669 6.42105 20.9808 6.51582C20.9979 6.53359 21.0663 6.5869 21.1631 6.75276C21.2086 6.82976 21.2656 6.95415 21.3169 7.11408Z" fill="#323835"/>
<path d="M21.4707 4.60837C21.4991 4.88084 21.4536 5.11185 21.408 5.25993C21.5333 5.85227 21.6586 6.43868 21.7782 7.03101C21.67 7.04878 21.5561 7.07247 21.4365 7.09617C21.4137 6.9777 21.3738 6.84147 21.3055 6.69931C21.2486 6.58676 21.1688 6.42091 21.0207 6.31429C20.8784 6.21359 20.7417 6.22544 20.6563 6.23728C20.2576 6.27875 19.5799 6.38537 18.9477 6.74077C18.8851 6.77631 18.7655 6.84739 18.7142 7.00732C18.6687 7.13763 18.6857 7.26202 18.7028 7.38641C18.7085 7.41603 18.7142 7.45749 18.7199 7.49896C18.6687 7.38641 18.6003 7.22056 18.4579 7.11986C18.3156 7.01324 18.1675 7.01917 18.0764 7.02509C17.6549 7.04878 16.9259 7.12578 16.2254 7.45749C16.1514 7.49303 16.0261 7.55819 15.9578 7.7122C15.9008 7.83659 15.9065 7.9669 15.9122 8.09721C15.9122 8.12091 15.9179 8.15052 15.9179 8.18014C15.8723 8.07352 15.7983 7.92544 15.6616 7.83659C15.5135 7.73589 15.3655 7.74774 15.2743 7.75366C14.8415 7.7892 14.0955 7.87805 13.3722 8.20976C13.2981 8.2453 13.1671 8.31045 13.0931 8.45854C13.0305 8.58293 13.0362 8.70732 13.0419 8.82578C13.0419 8.90279 13.0532 9.02125 13.0931 9.16341L13.076 9.16934C13.0646 9.09826 13.0475 9.02125 13.0134 8.93833C12.9735 8.84355 12.9223 8.69547 12.7913 8.6007C12.666 8.51185 12.535 8.51185 12.4609 8.51185C12.0851 8.52369 11.4358 8.56516 10.8037 8.82578C10.741 8.84948 10.6214 8.90279 10.5531 9.0331C10.5075 9.12195 10.4961 9.2108 10.4961 9.29373C10.4164 8.99164 10.3424 8.68955 10.2683 8.38746C10.2114 8.26899 10.1202 8.08536 10.012 7.8662C9.90383 7.63519 9.80701 7.42788 9.78993 7.38049C9.59629 6.93032 9.7045 6.21359 9.82979 5.82857C10.0177 5.26586 10.4506 4.78014 13.5886 3.08015C13.9929 2.86098 14.3233 2.68328 14.5568 2.56482C14.9326 2.57666 15.5078 2.59443 16.2084 2.58851C18.8224 2.57666 20.2576 2.32196 20.7816 3.03868C20.9638 3.28746 21.2599 3.9568 21.3169 4.09896C21.3909 4.25297 21.4479 4.40105 21.4707 4.60837Z" fill="#323835"/>
<path d="M9.84569 7.84254C9.84 7.83069 9.83431 7.81884 9.82861 7.80699C9.82291 7.78922 9.81722 7.77146 9.81152 7.75368C10.5177 7.57006 11.6738 7.26797 13.1147 6.91257C14.9998 6.44463 15.9053 6.23731 18.0467 5.71013C18.844 5.51466 20.0571 5.21257 21.5492 4.83348C21.5549 4.85125 21.5549 4.8631 21.5606 4.88087C21.5663 4.89864 21.5663 4.91641 21.5663 4.93418C17.6594 5.9056 13.7526 6.87111 9.84569 7.84254Z" fill="white"/>
<path d="M10.103 8.31639C10.0916 8.30455 10.0802 8.28678 10.0688 8.27493C10.8605 8.06762 11.9938 7.77145 13.3606 7.42789C15.1261 6.98364 16.0089 6.7704 18.1787 6.23138C18.9476 6.04183 20.1208 5.74566 21.573 5.37842C21.5673 5.39026 21.5559 5.40211 21.5503 5.41988C21.5389 5.43765 21.5275 5.45542 21.5161 5.46727C17.7174 6.415 13.9131 7.36274 10.103 8.31639Z" fill="white"/>
<path d="M10.2114 8.44678C10.2 8.42901 10.1886 8.41716 10.1772 8.39939C10.9746 8.19207 12.0794 7.90183 13.4007 7.57012C15.1662 7.12587 16.0489 6.91263 18.2017 6.37953C19.0446 6.16629 20.1722 5.8879 21.5049 5.54434C21.5106 5.56804 21.5106 5.58581 21.5163 5.6095C17.7518 6.55131 13.9816 7.49904 10.2114 8.44678Z" fill="white"/>
<path d="M21.4422 7.09039C21.4194 6.97192 21.3796 6.83568 21.3112 6.69352C21.2543 6.58098 21.1745 6.41513 21.0265 6.30851C20.8841 6.20781 20.7474 6.21966 20.662 6.2315C20.2633 6.27297 19.5856 6.37959 18.9534 6.73499C18.8908 6.77053 18.7712 6.84161 18.7199 7.00154C18.6744 7.13185 18.6914 7.25624 18.7085 7.38063C18.7142 7.41025 18.7199 7.45171 18.7256 7.49317C18.6744 7.38063 18.606 7.21478 18.4636 7.11408C18.3213 7.00746 18.1732 7.01338 18.0821 7.01931C17.6606 7.043 16.9316 7.12 16.2311 7.45171C16.1571 7.48725 16.0318 7.55241 15.9635 7.70641C15.9065 7.8308 15.9122 7.96112 15.9179 8.09143C15.9179 8.11512 15.9236 8.14474 15.9236 8.17436C15.878 8.06774 15.804 7.91965 15.6673 7.8308C15.5193 7.73011 15.3712 7.74195 15.2801 7.74788C14.8472 7.78342 14.1012 7.87227 13.3779 8.20397C13.3038 8.23951 13.1729 8.30467 13.0988 8.45276C13.0362 8.57715 13.0419 8.70153 13.0476 8.82C13.0476 8.897 13.059 9.01547 13.0988 9.15763L13.0817 9.16356C13.0703 9.09248 13.0533 9.01547 13.0191 8.93254C12.9792 8.83777 12.928 8.68969 12.797 8.59492C12.6717 8.50607 12.5407 8.50607 12.4667 8.50607C12.0908 8.51791 11.4415 8.55937 10.8094 8.82C10.7467 8.84369 10.6271 8.897 10.5588 9.02732C10.5132 9.11617 10.5018 9.20502 10.5018 9.28794C10.5474 9.47157 10.5986 9.66112 10.6442 9.84474C10.6556 9.83882 10.6727 9.83289 10.6841 9.82697C10.6271 9.66112 10.61 9.51896 10.5986 9.42418C10.5816 9.26425 10.6043 9.21094 10.61 9.19317C10.6613 9.05694 10.8037 9.01547 10.872 8.99178C11.3219 8.85554 11.937 8.63046 12.4667 8.66007C12.5293 8.666 12.6375 8.67192 12.7343 8.75484C12.7514 8.76669 12.8084 8.82 12.8767 8.96808C12.8995 9.02139 12.9337 9.0984 12.9564 9.19317L12.8539 9.21687C12.6033 9.28202 12.0509 9.42418 11.339 9.63742C11.06 9.72035 10.8208 9.79735 10.6442 9.85066C10.667 9.94544 10.6898 10.0343 10.7126 10.1291C11.06 10.0165 11.5668 9.85659 12.1762 9.67889C12.5635 9.56634 12.8824 9.47749 13.1785 9.40049C13.1956 9.39457 13.2127 9.38864 13.2355 9.38864C13.9246 9.20502 14.5055 9.07471 15.4965 8.82593C15.6445 8.79039 15.7812 8.75485 15.9122 8.71931L16.0489 8.68377C16.0831 8.67784 16.1172 8.666 16.1457 8.66007C17.4214 8.32837 17.8372 8.18028 18.6971 7.96112C18.7427 7.94927 18.7826 7.93742 18.8281 7.92558L18.8452 7.91965C18.8737 7.91373 18.9079 7.90188 18.942 7.89596C19.0844 7.86042 19.2439 7.82488 19.4204 7.78342C20.4228 7.55241 21.26 7.38655 21.8238 7.28586C21.8067 7.20293 21.7896 7.12 21.7725 7.03708C21.6757 7.043 21.5618 7.06669 21.4422 7.09039ZM13.2127 9.12802C13.1899 9.03917 13.1785 8.96216 13.1672 8.90293C13.1444 8.7193 13.1615 8.66007 13.1672 8.6423C13.2184 8.48237 13.3836 8.42314 13.4633 8.39944C13.9759 8.21582 14.6821 7.92558 15.2858 7.9315C15.3598 7.9315 15.4851 7.93742 15.599 8.02627C15.6218 8.04404 15.6901 8.09735 15.7698 8.25728C15.7983 8.31059 15.8325 8.3876 15.861 8.48237C14.9953 8.70154 14.3176 8.85554 13.2127 9.12802ZM16.0888 8.42906C16.066 8.33429 16.0489 8.25136 16.0432 8.19213C16.0147 7.99666 16.0318 7.93742 16.0375 7.91373C16.0888 7.74788 16.2482 7.69457 16.3223 7.66495C16.8177 7.48725 17.5012 7.19701 18.0935 7.21478C18.1675 7.21478 18.2871 7.22662 18.401 7.3214C18.4238 7.33917 18.4864 7.3984 18.5718 7.57018C18.5946 7.61164 18.6174 7.66495 18.6402 7.72418C17.4784 8.02627 17.4214 8.08551 16.0888 8.42906ZM18.8794 7.66495C18.8566 7.59387 18.8395 7.52871 18.8281 7.4754C18.7883 7.28586 18.7997 7.2207 18.8054 7.20293C18.8395 7.03708 18.9876 6.97192 19.0502 6.9423C19.5059 6.74091 20.1266 6.4329 20.6847 6.42105C20.7531 6.42105 20.867 6.42105 20.9809 6.51582C20.998 6.53359 21.0663 6.5869 21.1631 6.75276C21.2087 6.82976 21.2656 6.95415 21.3169 7.11408C20.6392 7.25032 19.8134 7.42802 18.8794 7.66495Z" fill="white"/>
<path d="M21.8352 7.27402C21.9092 7.61757 21.9776 7.96113 22.0516 8.30468C19.4091 9.35904 16.3621 10.2772 12.9451 10.8162C12.273 10.9228 11.6124 11.0116 10.9632 11.0827C10.8834 10.7629 10.798 10.443 10.7183 10.1291C11.0657 10.0165 11.5725 9.8566 12.1819 9.6789C12.5692 9.56635 12.8881 9.4775 13.1843 9.4005C13.2013 9.39458 13.2184 9.38865 13.2412 9.38865C13.9303 9.20503 14.5112 9.07472 15.5022 8.82593C15.6503 8.79039 15.7869 8.75486 15.9179 8.71932L16.0546 8.68377C16.0888 8.67785 16.123 8.66601 16.1514 8.66008C17.4271 8.32837 17.8429 8.18029 18.7029 7.96113C18.7484 7.94928 18.7883 7.93743 18.8338 7.92559L18.8509 7.91966C18.8794 7.91374 18.9136 7.90189 18.9477 7.89597C19.0901 7.86043 19.2496 7.82489 19.4261 7.78343C20.4399 7.54057 21.2714 7.38064 21.8352 7.27402Z" fill="#323835"/>
<path d="M12.7513 9.03323L10.7694 9.35901C10.7637 9.35901 10.7523 9.35309 10.7523 9.34717L10.7352 9.2287C10.7352 9.22278 10.7409 9.21093 10.7466 9.21093L12.7285 8.88515C12.7342 8.88515 12.7456 8.89107 12.7456 8.89699L12.7627 9.01546C12.7684 9.02138 12.7627 9.03323 12.7513 9.03323Z" fill="white"/>
<path d="M18.3439 7.58779L16.2709 8.12682C16.2652 8.12682 16.2538 8.12682 16.2538 8.11497L16.2253 8.00243C16.2253 7.99651 16.2253 7.98466 16.2367 7.98466L18.3098 7.44563C18.3155 7.44563 18.3268 7.44563 18.3268 7.45748L18.3553 7.57002C18.3553 7.57595 18.3496 7.58779 18.3439 7.58779Z" fill="white"/>
<path d="M12.4382 4.875C12.3584 5.18893 12.4325 5.57395 12.7172 5.76942C13.0988 6.03597 13.7423 5.88197 14.141 5.66873C14.6536 5.39033 14.6877 5.04085 15.075 4.63806C15.3996 4.30043 15.9976 3.89172 17.2107 3.7081C17.0057 3.58371 16.6355 3.40009 16.1286 3.31716C14.608 3.08022 12.6887 3.90949 12.4382 4.875Z" fill="white"/>
</svg>
