<svg width="20" height="20" viewBox="0 0 20 20" fill="none" xmlns="http://www.w3.org/2000/svg">
<g clip-path="url(#clip0)">
<path d="M19.9953 18.5813L18.4241 9.92464C18.4084 9.83823 18.3548 9.76339 18.278 9.7207L14.3233 7.52108C14.2719 7.49249 14.2144 7.48112 14.1579 7.4855L14.8774 16.7671L14.8533 16.7779L19.5862 18.9012C19.6247 18.9184 19.6657 18.9269 19.7064 18.9269C19.7709 18.9269 19.8348 18.9057 19.8874 18.8646C19.9732 18.7975 20.0147 18.6885 19.9953 18.5813Z" fill="#44C868"/>
<path d="M9.99997 9.62399L5.95524 7.5173C5.90676 7.49203 5.85301 7.48172 5.80008 7.48527C5.8141 7.48441 5.8282 7.48449 5.84219 7.48558L5.1227 16.7672L9.87977 18.9013C9.91817 18.9185 9.95915 18.9271 9.99997 18.9271V9.62399Z" fill="#44C868"/>
<path d="M5.84229 7.48578C5.78576 7.4814 5.72822 7.49277 5.6769 7.52133L1.72208 9.72094C1.64529 9.76363 1.59169 9.83844 1.57603 9.92488L0.00481334 18.5816C-0.0146398 18.6887 0.0269228 18.7978 0.112743 18.8649C0.165361 18.906 0.229228 18.9272 0.293681 18.9272C0.334423 18.9272 0.3754 18.9187 0.413877 18.9015L5.12107 16.7897L5.84229 7.48578Z" fill="#4CE166"/>
<path d="M14.1579 7.48563C14.119 7.48864 14.0805 7.49899 14.0448 7.51759L10.0001 9.62423V18.9273C10.0001 18.9273 10.0001 18.9273 10.0001 18.9273C10.041 18.9273 10.082 18.9188 10.1203 18.9016L14.8774 16.7674L14.1579 7.48563Z" fill="#4CE166"/>
<path d="M1.09985 12.5482L0.78067 14.3068L5.50701 11.8105L5.61673 10.3949L5.63494 10.1601L1.09985 12.5482Z" fill="#FFDB56"/>
<path d="M5.54955 11.2614L5.50701 11.8103L0.780674 14.3066L0.00481334 18.5813C-0.0146398 18.6885 0.0269228 18.7975 0.112743 18.8646C0.165361 18.9058 0.229228 18.927 0.293681 18.927C0.334423 18.927 0.3754 18.9185 0.413877 18.9012L5.12107 16.7895L5.54955 11.2614Z" fill="#A8EEFC"/>
<path d="M10.0012 10.7846L5.63486 10.1602L5.50693 11.8106L10 18.634V16.1528L7.31888 11.931L10.0012 12.2518V10.7846Z" fill="#FFBB24"/>
<path d="M17.9666 9.54779L16.0668 8.4911L14.2683 8.91134L14.2908 9.20181L14.3796 10.3477L17.9666 9.54779Z" fill="#FFBB24"/>
<path d="M14.5393 12.4053L14.369 10.208L14.2685 8.9112L10.0013 10.7843V12.2516L12.7887 11.0395L14.5393 12.4053Z" fill="#FFDB56"/>
<path d="M19.9953 18.5814L19.6007 16.4069L14.3797 10.3475L14.5392 12.4052L19.8935 18.8592C19.9749 18.7917 20.0143 18.6858 19.9953 18.5814Z" fill="#FFBB24"/>
<path d="M10.0188 1.07275C7.75461 1.07275 5.91254 2.9133 5.91254 5.17565C5.91254 6.57511 6.57695 8.07761 7.88738 9.64136C8.84985 10.7899 9.79922 11.5286 9.83918 11.5595C9.89207 11.6004 9.95543 11.6209 10.0188 11.6209C10.0822 11.6209 10.1456 11.6004 10.1985 11.5595C10.2384 11.5286 11.1878 10.7899 12.1503 9.64136C13.4607 8.07761 14.1251 6.57515 14.1251 5.17565C14.125 2.9133 12.283 1.07275 10.0188 1.07275ZM11.5395 5.17561C11.5395 6.01475 10.8586 6.69507 10.0188 6.69507C9.17895 6.69507 8.49809 6.01479 8.49809 5.17561C8.49809 4.33643 9.17895 3.65616 10.0188 3.65616C10.8586 3.65616 11.5395 4.33647 11.5395 5.17561Z" fill="#FF4A4A"/>
<path d="M10.0188 1.07275C9.83939 1.07275 9.66263 1.08439 9.4892 1.10682C11.5042 1.36725 13.0658 3.0926 13.0658 5.17565C13.0658 6.57511 12.4014 8.07761 11.091 9.64136C10.4721 10.38 9.85896 10.9487 9.48924 11.2691C9.69447 11.4469 9.82502 11.5485 9.83924 11.5595C9.89213 11.6004 9.95549 11.6209 10.0189 11.6209C10.0822 11.6209 10.1456 11.6004 10.1985 11.5595C10.2385 11.5286 11.1879 10.7899 12.1503 9.64136C13.4608 8.07761 14.1252 6.57515 14.1252 5.17565C14.1251 2.9133 12.283 1.07275 10.0188 1.07275Z" fill="#E7343F"/>
<path d="M10.1203 18.9014L11.8893 18.1078L10.0001 16.1526V18.9271C10.0001 18.9271 10.0001 18.9271 10.0001 18.9271C10.041 18.9271 10.0819 18.9186 10.1203 18.9014Z" fill="#FFDB56"/>
<path d="M18.4241 9.92479C18.4084 9.83839 18.3548 9.76354 18.278 9.72085L17.9667 9.54768L14.3797 10.3476L19.6006 16.407L18.4241 9.92479Z" fill="#1EA4E9"/>
<path d="M9.99995 18.9271C9.99999 18.9271 9.99999 18.9271 9.99995 18.9271V18.6338L5.50689 11.8104L5.12263 16.7673L9.87971 18.9014C9.91811 18.9187 9.95909 18.9271 9.99995 18.9271Z" fill="#1EA4E9"/>
</g>
<defs>
<clipPath id="clip0">
<rect width="20" height="20" fill="white"/>
</clipPath>
</defs>
</svg>
