<svg width="10" height="10" viewBox="0 0 10 10" fill="none" xmlns="http://www.w3.org/2000/svg">
<path d="M5 0.809018L5.88481 3.53217L5.94093 3.70492H6.12257H8.98586L6.66941 5.38792L6.52246 5.49468L6.57859 5.66742L7.4634 8.39058L5.14695 6.70758L5 6.60081L4.85305 6.70758L2.5366 8.39058L3.42141 5.66742L3.47754 5.49468L3.33059 5.38792L1.01414 3.70492H3.87743H4.05907L4.11519 3.53217L5 0.809018Z" fill="white" stroke="#440000" stroke-width="0.5"/>
</svg>
