<svg width="170" height="170" viewBox="0 0 170 170" fill="none" xmlns="http://www.w3.org/2000/svg">
<g filter="url(#filter0_d)">
<circle cx="85" cy="85" r="75" fill="#FFE7C3"/>
<path fill-rule="evenodd" clip-rule="evenodd" d="M85.0143 51.6667C75.2342 51.6667 67.3059 59.6288 67.3059 69.4506C67.3059 79.2724 75.2342 87.2345 85.0143 87.2345C94.7944 87.2345 102.723 79.2724 102.723 69.4506C102.723 59.6288 94.7944 51.6667 85.0143 51.6667ZM85.0143 56.4922C92.1406 56.4922 97.9176 62.2939 97.9176 69.4506C97.9176 76.6073 92.1406 82.4089 85.0143 82.4089C77.888 82.4089 72.111 76.6073 72.111 69.4506C72.111 62.2939 77.888 56.4922 85.0143 56.4922ZM77.7668 94.403C75.1744 94.5829 72.554 94.953 69.9693 95.5069C64.9806 96.5345 60.9895 98.5877 59.2908 102C58.6501 103.334 58.3279 104.763 58.3334 106.209C58.3315 107.645 58.651 109.076 59.2687 110.384C60.8998 113.757 64.426 115.666 69.1875 116.724L70.0404 116.902C72.5549 117.469 75.1761 117.851 77.8149 118.03C78.0396 118.096 78.5752 118.157 79.1599 118.187L79.6407 118.205C79.888 118.211 80.1686 118.212 80.5867 118.212C84.3795 118.421 88.3114 118.36 92.225 118.027C94.3106 117.884 96.4103 117.612 98.4924 117.212L100.05 116.889C105.192 115.874 109.042 113.945 110.729 110.388C111.979 107.747 111.979 104.682 110.729 102.042C109.047 98.4942 105.246 96.5813 100.011 95.503C97.9575 95.0646 95.8707 94.7402 93.7689 94.533L92.2323 94.403C87.4198 93.9784 82.5794 93.9784 77.7668 94.403ZM91.8119 99.21L91.8541 99.2134C94.2663 99.3831 96.6637 99.7217 99.0289 100.227C102.917 101.028 105.556 102.356 106.39 104.116C107.019 105.443 107.019 106.986 106.39 108.315C105.61 109.96 103.24 111.23 99.8149 112.007L99.065 112.166C96.6533 112.704 94.2638 113.051 91.8585 113.216C88.1265 113.533 84.4165 113.59 80.7159 113.39L79.4039 113.368C79.0397 113.349 78.7327 113.314 78.4482 113.257C76.1958 113.087 74.1689 112.818 72.2009 112.428L71.0258 112.179C67.1257 111.415 64.4638 110.081 63.6008 108.297C63.2988 107.657 63.1375 106.934 63.1385 106.203C63.1358 105.476 63.2949 104.77 63.6039 104.126C64.4431 102.441 67.264 100.99 70.9535 100.23C73.3358 99.7197 75.7321 99.3813 78.1431 99.2135C82.7201 98.8101 87.2791 98.8101 91.8119 99.21Z" fill="#440000"/>
</g>
<defs>
<filter id="filter0_d" x="0" y="0" width="170" height="170" filterUnits="userSpaceOnUse" color-interpolation-filters="sRGB">
<feFlood flood-opacity="0" result="BackgroundImageFix"/>
<feColorMatrix in="SourceAlpha" type="matrix" values="0 0 0 0 0 0 0 0 0 0 0 0 0 0 0 0 0 0 127 0"/>
<feOffset/>
<feGaussianBlur stdDeviation="5"/>
<feColorMatrix type="matrix" values="0 0 0 0 0 0 0 0 0 0 0 0 0 0 0 0 0 0 0.15 0"/>
<feBlend mode="normal" in2="BackgroundImageFix" result="effect1_dropShadow"/>
<feBlend mode="normal" in="SourceGraphic" in2="effect1_dropShadow" result="shape"/>
</filter>
</defs>
</svg>
