<svg width="170" height="170" viewBox="0 0 170 170" fill="none" xmlns="http://www.w3.org/2000/svg">
<g filter="url(#filter0_d)">
<circle cx="85" cy="85" r="75" fill="#FFE7C3"/>
<path fill-rule="evenodd" clip-rule="evenodd" d="M66.5681 51.6724L66.6568 51.6782C68.4031 51.8229 69.9198 52.6907 71.3044 54.0435C73.9356 56.6133 79.5855 64.1122 80.0121 66.153C80.4842 68.4297 79.9794 69.9084 78.4747 72.5241L78.1099 73.1688C77.4194 74.43 77.3139 74.9507 77.5277 75.547C80.8131 83.5877 86.4196 89.1934 94.3685 92.4399C95.1213 92.7126 95.6897 92.5563 97.2805 91.6437L98.1106 91.1741C100.347 89.9474 101.765 89.5597 103.855 89.9951C105.889 90.4212 113.392 96.0747 115.958 98.7025C117.309 100.086 118.178 101.605 118.33 103.466C118.49 107.991 112.969 114.361 109.602 116.276C105.772 119.015 100.912 118.97 95.4632 116.434C81.2136 110.504 59.4166 88.8464 53.6079 74.6144L53.2602 73.8183C51.0545 68.5466 51.1023 63.9922 53.6299 60.5586C55.9362 56.7392 62.1544 51.4683 66.5681 51.6724ZM66.2987 56.5466L66.0048 56.5616C63.7395 56.8626 59.1967 60.7736 57.6838 63.2611L57.4225 63.6501C56.1192 65.7735 56.2703 68.6896 58.0847 72.6823L58.4315 73.4941C64.2833 86.6274 84.5443 106.607 97.4278 111.97L98.1374 112.286C101.865 113.866 104.687 113.796 106.971 112.176L107.14 112.067C107.847 111.576 109.477 110.095 110.733 108.646C112.496 106.611 113.495 104.746 113.463 103.754C113.428 103.329 113.1 102.757 112.469 102.111C110.562 100.157 103.625 94.9303 102.858 94.7696C102.133 94.6187 101.538 94.8216 99.9106 95.7576L99.092 96.2175C96.6947 97.5103 95.0046 97.8577 92.6169 96.9911C83.3636 93.2142 76.7943 86.6459 72.9775 77.2994C72.0735 74.8003 72.5601 73.0323 74.1323 70.2921L74.5069 69.6331C75.2211 68.3435 75.3722 67.7964 75.2377 67.1473C75.0765 66.3765 69.8529 59.4434 67.8969 57.5329C67.2491 56.9001 66.68 56.5744 66.2541 56.5391L66.2987 56.5466Z" fill="#440000"/>
</g>
<defs>
<filter id="filter0_d" x="0" y="0" width="170" height="170" filterUnits="userSpaceOnUse" color-interpolation-filters="sRGB">
<feFlood flood-opacity="0" result="BackgroundImageFix"/>
<feColorMatrix in="SourceAlpha" type="matrix" values="0 0 0 0 0 0 0 0 0 0 0 0 0 0 0 0 0 0 127 0"/>
<feOffset/>
<feGaussianBlur stdDeviation="5"/>
<feColorMatrix type="matrix" values="0 0 0 0 0 0 0 0 0 0 0 0 0 0 0 0 0 0 0.15 0"/>
<feBlend mode="normal" in2="BackgroundImageFix" result="effect1_dropShadow"/>
<feBlend mode="normal" in="SourceGraphic" in2="effect1_dropShadow" result="shape"/>
</filter>
</defs>
</svg>
