<svg width="24" height="24" viewBox="0 0 24 24" fill="none" xmlns="http://www.w3.org/2000/svg">
<rect width="24" height="24" rx="12" fill="#440000"/>
<rect x="5" y="11" width="14" height="2" rx="1" fill="white"/>
<rect x="13" y="5" width="14" height="2" rx="1" transform="rotate(90 13 5)" fill="white"/>
</svg>
